{
    "name": "MyWarehouse",
    "alias": "mywarehouse",
    "description": "",
    "keywords": [],
    "priority": 0,
    "providers": [
        "Modules\\MyWarehouse\\Providers\\MyWarehouseServiceProvider"
    ],
    "aliases": {},
    "files": [],
    "requires": []
}
